<svg xmlns="http://www.w3.org/2000/svg" viewBox="0 0 128 128">
    <path fill="currentColor" d="M118 124L99 89H64l-20 35h49.6l11.4 3h13z"/>
    <path fill="#2f3542" d="M4 127c-.8 0-1.6-.3-2.1-.9l-.4-.4c-.1-.2-.2-.3-.3-.5s-.1-.4-.2-.6c0-.2-.1-.4-.1-.6 0-.8.3-1.6.9-2.1.7-.7 1.7-1 2.7-.8.2 0 .4.1.6.2s.4.2.5.3c.2.1.3.2.4.4.6.6.9 1.3.9 2.1 0 .2 0 .4-.1.6 0 .2-.1.4-.2.6s-.2.4-.3.5c-.1.2-.2.3-.4.4l-.4.4c-.2.1-.3.2-.5.3-.2.1-.4.1-.6.2 0-.1-.2-.1-.4-.1zM120.6 122.6l-19-35c-.5-1-1.5-1.6-2.6-1.6H64c-1.1 0-2.1.6-2.6 1.5L42.3 121h-7V66.8c3.3 5 7.9 9.1 13.5 11.9.4.2.9.3 1.3.3 1.1 0 2.2-.6 2.7-1.7.7-1.5.1-3.3-1.3-4-10-5-16.2-15.1-16.2-26.3v-5.9c4.2 7.1 10.4 13.1 18.2 16.9.4.2.9.3 1.3.3 1.1 0 2.2-.6 2.7-1.7.7-1.5.1-3.3-1.3-4-11.9-5.9-19.6-17.4-20.7-30.5 2.7 3.6 6.3 6.6 10.5 8.7.4.2.9.3 1.3.3 1.1 0 2.2-.6 2.7-1.7.7-1.5.1-3.3-1.3-4C40.3 21.5 35.2 13.2 35.2 4c0-1.7-1.3-3-3-3s-3 1.3-3 3c0 9.2-5.1 17.5-13.3 21.6-1.5.7-2.1 2.5-1.3 4 .5 1.1 1.6 1.7 2.7 1.7.5 0 .9-.1 1.3-.3 4.2-2.1 7.8-5.1 10.5-8.7-1.1 13-8.8 24.5-20.7 30.5-1.5.7-2.1 2.5-1.3 4 .5 1.1 1.6 1.7 2.7 1.7.5 0 .9-.1 1.3-.3 7.8-3.9 14-9.8 18.2-16.9V47c0 11.2-6.2 21.3-16.2 26.3-1.5.7-2.1 2.5-1.3 4 .7 1.5 2.5 2.1 4 1.3 5.6-2.8 10.2-6.9 13.5-11.9V121H19c-1.7 0-3 1.3-3 3s1.3 3 3 3h86c1.7 0 3-1.3 3-3s-1.3-3-3-3h-8v-20c0-1.4-.9-2.6-2.3-2.9-1.3-.3-2.7.3-3.4 1.5L80.2 121h-31l16.6-29h31.5l18.1 33.4c.5 1 1.6 1.6 2.6 1.6.5 0 1-.1 1.4-.4 1.5-.8 2-2.6 1.2-4z"/>
</svg>
